<?xml version="1.0" encoding="UTF-8" standalone="no"?>
<!-- Created with Inkscape (http://www.inkscape.org/) -->

<svg
   width="52.092159mm"
   height="50.297279mm"
   viewBox="0 0 52.092159 50.297279"
   version="1.1"
   id="svg9878"
   inkscape:version="1.2.1 (9c6d41e410, 2022-07-14)"
   sodipodi:docname="spade.svg"
   xmlns:inkscape="http://www.inkscape.org/namespaces/inkscape"
   xmlns:sodipodi="http://sodipodi.sourceforge.net/DTD/sodipodi-0.dtd"
   xmlns="http://www.w3.org/2000/svg"
   xmlns:svg="http://www.w3.org/2000/svg">
  <sodipodi:namedview
     id="namedview9880"
     pagecolor="#ffffff"
     bordercolor="#000000"
     borderopacity="0.25"
     inkscape:showpageshadow="2"
     inkscape:pageopacity="0.0"
     inkscape:pagecheckerboard="0"
     inkscape:deskcolor="#d1d1d1"
     inkscape:document-units="mm"
     showgrid="false"
     inkscape:zoom="0.71624579"
     inkscape:cx="173.12493"
     inkscape:cy="136.12645"
     inkscape:window-width="1920"
     inkscape:window-height="991"
     inkscape:window-x="-9"
     inkscape:window-y="-9"
     inkscape:window-maximized="1"
     inkscape:current-layer="layer1" />
  <defs
     id="defs9875" />
  <g
     inkscape:label="Layer 1"
     inkscape:groupmode="layer"
     id="layer1"
     transform="translate(-59.101302,-112.75394)">
    <path
       d="m 93.556976,163.05122 c -3.762057,-4.64214 -5.288107,-11.97802 -2.803812,-12.51756 2.484397,-0.53923 3.123227,6.47352 8.8727,6.47352 1.171126,0 5.607526,-0.21328 8.837086,-4.6351 9.58245,-13.10306 -8.837086,-25.15573 -12.634656,-28.60893 -3.761956,-3.45321 -8.943624,-6.1541 -10.682651,-11.00921 -1.739027,4.85511 -6.920595,7.556 -10.682652,11.00921 -3.761956,3.4532 -22.217111,15.50587 -12.634656,28.60893 3.229665,4.42212 7.665964,4.6351 8.8727,4.6351 5.71396,0 6.35279,-7.01295 8.837086,-6.47352 2.484396,0.53923 0.958748,7.87542 -2.803711,12.51756 h 16.822566"
       style="fill:#231f20;fill-opacity:1;fill-rule:nonzero;stroke:none;stroke-width:0.354906"
       id="path3441" />
  </g>
</svg>
